…
- Note the ``acorn`` object we created to hold the contents of this file. Let's call that object from R's memory:


```r
acorn

# A tibble: 1,539 × 25
   Site_ID Latitude Longitude Elevation_in_Meters State Species_ID Genus Species
     <dbl>    <dbl>     <dbl>               <dbl> <chr>      <dbl> <chr> <chr>  
 1   18465     39.7    -122.                   61 CA          1229 Mela… formic…
 2   18465     39.7    -122.                   61 CA          1229 Mela… formic…
 3   18465     39.7    -122.                   61 CA          1229 Mela… formic…
 4   18465     39.7    -122.                   61 CA          1229 Mela… formic…
 5   18465     39.7    -122.                   61 CA          1229 Mela… formic…
 6   18465     39.7    -122.                   61 CA          1229 Mela… formic…
 7   18465     39.7    -122.                   61 CA          1229 Mela… formic…
 8   18465     39.7    -122.                   61 CA          1229 Mela… formic…
 9    9465     34.5    -112.                 1693 AZ          1229 Mela… formic…
10   16442     39.4     -76.6                 120 MD          1229 Mela… formic…
# … with 1,529 more rows, and 17 more variables: Common_Name <chr>,
#   Kingdom <chr>, Individual_ID <dbl>, Phenophase_ID <dbl>,
#   Phenophase_Description <chr>, First_Yes_Year <dbl>, First_Yes_Month <dbl>,
#   First_Yes_Day <dbl>, First_Yes_DOY <dbl>, First_Yes_Julian_Date <dbl>,
#   NumDays_Since_Prior_No <dbl>, Last_Yes_Year <dbl>, Last_Yes_Month <dbl>,
#   Last_Yes_Day <dbl>, Last_Yes_DOY <dbl>, Last_Yes_Julian_Date <dbl>,
#   NumDays_Until_Next_No <dbl>
```
…
cols(
  date = col_date(format = ""),
  state = col_character(),
  fips = col_character(),
  cases = col_double(),
  deaths = col_double()
)
```

- Check the tibble

```r
states

# A tibble: 51,302 × 5
   date       state      fips  cases deaths
   <date>     <chr>      <chr> <dbl>  <dbl>
 1 2020-01-21 Washington 53        1      0
 2 2020-01-22 Washington 53        1      0
 3 2020-01-23 Washington 53        1      0
 4 2020-01-24 Illinois   17        1      0
 5 2020-01-24 Washington 53        1      0
 6 2020-01-25 California 06        1      0
 7 2020-01-25 Illinois   17        1      0
 8 2020-01-25 Washington 53        1      0
 9 2020-01-26 Arizona    04        1      0
10 2020-01-26 California 06        2      0
# … with 51,292 more rows
```

- How would you print 20 rows from this tibble?

```r
states %>% print(n=20)

# A tibble: 51,302 × 5
   date       state      fips  cases deaths
   <date>     <chr>      <chr> <dbl>  <dbl>
 1 2020-01-21 Washington 53        1      0
 2 2020-01-22 Washington 53        1      0
 3 2020-01-23 Washington 53        1      0
 4 2020-01-24 Illinois   17        1      0
 5 2020-01-24 Washington 53        1      0
 6 2020-01-25 California 06        1      0
 7 2020-01-25 Illinois   17        1      0
 8 2020-01-25 Washington 53        1      0
 9 2020-01-26 Arizona    04        1      0
10 2020-01-26 California 06        2      0
11 2020-01-26 Illinois   17        1      0
12 2020-01-26 Washington 53        1      0
13 2020-01-27 Arizona    04        1      0
14 2020-01-27 California 06        2      0
15 2020-01-27 Illinois   17        1      0
16 2020-01-27 Washington 53        1      0
17 2020-01-28 Arizona    04        1      0
18 2020-01-28 California 06        2      0
19 2020-01-28 Illinois   17        1      0
20 2020-01-28 Washington 53        1      0
# … with 51,282 more rows
```
…
```r
counties <- read_csv("https://raw.githubusercontent.com/nytimes/covid-19-data/master/us-counties.csv")

Rows: 2502832 Columns: 6                                                                                              
── Column specification ───────────────────────────────────────────────────
Delimiter: ","
chr  (3): county, state, fips
dbl  (2): cases, deaths
date (1): date
```

```r
counties

# A tibble: 2,502,832 × 6
   date       county      state      fips  cases deaths
   <date>     <chr>       <chr>      <chr> <dbl>  <dbl>
 1 2020-01-21 Snohomish   Washington 53061     1      0
 2 2020-01-22 Snohomish   Washington 53061     1      0
 3 2020-01-23 Snohomish   Washington 53061     1      0
 4 2020-01-24 Cook        Illinois   17031     1      0
 5 2020-01-24 Snohomish   Washington 53061     1      0
 6 2020-01-25 Orange      California 06059     1      0
 7 2020-01-25 Cook        Illinois   17031     1      0
 8 2020-01-25 Snohomish   Washington 53061     1      0
 9 2020-01-26 Maricopa    Arizona    04013     1      0
10 2020-01-26 Los Angeles California 06037     1      0
# … with 2,502,822 more rows
```
…
